<?xml version="1.0" encoding="UTF-8"?>
<!DOCTYPE svg PUBLIC "-//W3C//DTD SVG 1.1//EN" "http://www.w3.org/Graphics/SVG/1.1/DTD/svg11.dtd">
<svg version="1.2" width="75mm" height="76mm" viewBox="0 0 7500 7600" preserveAspectRatio="xMidYMid" fill-rule="evenodd" stroke-width="28.222" stroke-linejoin="round" xmlns="http://www.w3.org/2000/svg" xmlns:ooo="http://xml.openoffice.org/svg/export" xmlns:xlink="http://www.w3.org/1999/xlink" xmlns:presentation="http://sun.com/xmlns/staroffice/presentation" xmlns:smil="http://www.w3.org/2001/SMIL20/" xmlns:anim="urn:oasis:names:tc:opendocument:xmlns:animation:1.0" xml:space="preserve">
 <defs class="ClipPathGroup">
  <clipPath id="presentation_clip_path" clipPathUnits="userSpaceOnUse">
   <rect x="0" y="0" width="7500" height="7600"/>
  </clipPath>
  <clipPath id="presentation_clip_path_shrink" clipPathUnits="userSpaceOnUse">
   <rect x="7" y="7" width="7485" height="7585"/>
  </clipPath>
 </defs>
 <defs>
  <font id="EmbeddedFont_1" horiz-adv-x="2048">
   <font-face font-family="Open Sans embedded" units-per-em="2048" font-weight="bold" font-style="normal" ascent="2170" descent="609"/>
   <missing-glyph horiz-adv-x="2048" d="M 0,0 L 2047,0 2047,2047 0,2047 0,0 Z"/>
   <glyph unicode="w" horiz-adv-x="1747" d="M 1079,0 L 993,391 877,885 870,885 666,0 338,0 20,1118 324,1118 453,623 C 474,534 495,412 516,256 L 522,256 C 525,307 536,387 557,497 L 573,582 711,1118 1047,1118 1178,582 C 1181,567 1185,546 1191,517 1196,488 1202,458 1207,426 1212,393 1217,362 1222,331 1226,300 1228,275 1229,256 L 1235,256 C 1241,304 1252,370 1267,454 1282,537 1293,594 1300,623 L 1434,1118 1733,1118 1411,0 1079,0 Z"/>
   <glyph unicode="u" horiz-adv-x="1060" d="M 952,0 L 911,143 895,143 C 862,91 816,51 756,23 696,-6 628,-20 551,-20 420,-20 321,15 254,86 187,156 154,257 154,389 L 154,1118 459,1118 459,465 C 459,384 473,324 502,284 531,243 576,223 639,223 724,223 786,252 824,309 862,366 881,460 881,592 L 881,1118 1186,1118 1186,0 952,0 Z"/>
   <glyph unicode="r" horiz-adv-x="742" d="M 784,1139 C 825,1139 860,1136 887,1130 L 864,844 C 839,851 809,854 774,854 677,854 601,829 547,779 492,729 465,659 465,569 L 465,0 160,0 160,1118 391,1118 436,930 451,930 C 486,993 533,1043 592,1082 651,1120 715,1139 784,1139 Z"/>
   <glyph unicode="p" horiz-adv-x="1059" d="M 774,-20 C 643,-20 540,28 465,123 L 449,123 C 460,30 465,-24 465,-39 L 465,-492 160,-492 160,1118 408,1118 451,973 465,973 C 536,1084 642,1139 782,1139 914,1139 1017,1088 1092,986 1167,884 1204,742 1204,561 1204,442 1187,338 1152,250 1117,162 1067,95 1002,49 937,3 861,-20 774,-20 Z M 684,895 C 609,895 554,872 519,826 484,779 466,703 465,596 L 465,563 C 465,443 483,357 519,305 554,253 611,227 688,227 825,227 893,340 893,565 893,675 876,758 843,813 809,868 756,895 684,895 Z"/>
   <glyph unicode="o" horiz-adv-x="1113" d="M 403,561 C 403,450 421,367 458,310 494,253 553,225 635,225 716,225 775,253 811,310 846,366 864,450 864,561 864,672 846,755 810,810 774,865 715,893 633,893 552,893 493,866 457,811 421,756 403,672 403,561 Z M 1176,561 C 1176,379 1128,237 1032,134 936,31 802,-20 631,-20 524,-20 429,4 347,51 265,98 202,165 158,253 114,341 92,444 92,561 92,744 140,886 235,987 330,1088 464,1139 637,1139 744,1139 839,1116 921,1069 1003,1022 1066,955 1110,868 1154,781 1176,678 1176,561 Z"/>
   <glyph unicode="n" horiz-adv-x="1033" d="M 1192,0 L 887,0 887,653 C 887,734 873,794 844,835 815,875 770,895 707,895 622,895 560,867 522,810 484,753 465,658 465,526 L 465,0 160,0 160,1118 393,1118 434,975 451,975 C 485,1029 532,1070 592,1098 651,1125 719,1139 795,1139 925,1139 1024,1104 1091,1034 1158,963 1192,862 1192,729 L 1192,0 Z"/>
   <glyph unicode="e" horiz-adv-x="1060" d="M 623,922 C 558,922 508,902 471,861 434,820 413,761 408,686 L 836,686 C 835,761 815,820 777,861 739,902 688,922 623,922 Z M 666,-20 C 486,-20 345,30 244,129 143,228 92,369 92,551 92,738 139,883 233,986 326,1088 456,1139 621,1139 779,1139 902,1094 990,1004 1078,914 1122,790 1122,631 L 1122,483 401,483 C 404,396 430,329 478,280 526,231 593,207 680,207 747,207 811,214 871,228 931,242 994,264 1059,295 L 1059,59 C 1006,32 949,13 888,-1 827,-13 753,-20 666,-20 Z"/>
   <glyph unicode="d" horiz-adv-x="1060" d="M 514,-20 C 383,-20 280,31 205,133 130,235 92,376 92,557 92,740 130,883 207,986 283,1088 388,1139 522,1139 663,1139 770,1084 844,975 L 854,975 C 839,1058 831,1133 831,1198 L 831,1556 1137,1556 1137,0 903,0 844,145 831,145 C 762,35 656,-20 514,-20 Z M 621,223 C 699,223 756,246 793,291 829,336 849,413 852,522 L 852,555 C 852,675 834,761 797,813 760,865 699,891 616,891 548,891 495,862 458,805 420,747 401,663 401,553 401,443 420,361 458,306 496,251 550,223 621,223 Z"/>
   <glyph unicode="c" horiz-adv-x="927" d="M 614,-20 C 266,-20 92,171 92,553 92,743 139,888 234,989 329,1089 464,1139 641,1139 770,1139 886,1114 989,1063 L 899,827 C 851,846 806,862 765,875 724,887 682,893 641,893 482,893 403,780 403,555 403,336 482,227 641,227 700,227 754,235 804,251 854,266 904,291 954,324 L 954,63 C 905,32 855,10 805,-2 754,-14 691,-20 614,-20 Z"/>
   <glyph unicode="a" horiz-adv-x="1007" d="M 870,0 L 811,152 803,152 C 752,87 699,43 645,18 590,-7 519,-20 432,-20 325,-20 240,11 179,72 117,133 86,221 86,334 86,453 128,540 211,597 294,653 419,684 586,690 L 780,696 780,745 C 780,858 722,915 606,915 517,915 412,888 291,834 L 190,1040 C 319,1107 461,1141 618,1141 768,1141 883,1108 963,1043 1043,978 1083,878 1083,745 L 1083,0 870,0 Z M 780,518 L 662,514 C 573,511 507,495 464,466 421,437 399,392 399,332 399,246 448,203 547,203 618,203 674,223 717,264 759,305 780,359 780,426 L 780,518 Z"/>
   <glyph unicode="S" horiz-adv-x="980" d="M 1047,406 C 1047,274 1000,170 905,94 810,18 677,-20 508,-20 352,-20 214,9 94,68 L 94,356 C 193,312 276,281 345,263 413,245 475,236 532,236 600,236 652,249 689,275 725,301 743,340 743,391 743,420 735,445 719,468 703,490 680,511 649,532 618,553 554,586 459,631 370,673 303,713 258,752 213,791 178,836 151,887 124,938 111,998 111,1067 111,1196 155,1298 243,1372 330,1446 451,1483 606,1483 682,1483 755,1474 824,1456 893,1438 965,1413 1040,1380 L 940,1139 C 862,1171 798,1193 747,1206 696,1219 645,1225 596,1225 537,1225 492,1211 461,1184 430,1157 414,1121 414,1077 414,1050 420,1026 433,1006 446,985 466,966 494,947 521,928 587,893 690,844 827,779 920,713 971,648 1022,582 1047,501 1047,406 Z"/>
   <glyph unicode="O" horiz-adv-x="1403" d="M 1511,733 C 1511,491 1451,305 1331,175 1211,45 1039,-20 815,-20 591,-20 419,45 299,175 179,305 119,492 119,735 119,978 179,1164 300,1293 420,1421 592,1485 817,1485 1042,1485 1214,1420 1333,1291 1452,1162 1511,976 1511,733 Z M 444,733 C 444,570 475,447 537,364 599,281 692,240 815,240 1062,240 1186,404 1186,733 1186,1062 1063,1227 817,1227 694,1227 601,1186 538,1103 475,1020 444,896 444,733 Z"/>
   <glyph unicode="H" horiz-adv-x="1218" d="M 1382,0 L 1073,0 1073,631 494,631 494,0 184,0 184,1462 494,1462 494,889 1073,889 1073,1462 1382,1462 1382,0 Z"/>
   <glyph unicode=" " horiz-adv-x="529"/>
  </font>
 </defs>
 <defs>
  <font id="EmbeddedFont_2" horiz-adv-x="2048">
   <font-face font-family="Open Sans Semibold embedded" units-per-em="2048" font-weight="normal" font-style="normal" ascent="2170" descent="609"/>
   <missing-glyph horiz-adv-x="2048" d="M 0,0 L 2047,0 2047,2047 0,2047 0,0 Z"/>
   <glyph unicode="y" horiz-adv-x="1112" d="M 0,1106 L 256,1106 481,479 C 515,390 538,306 549,227 L 557,227 C 563,264 574,308 590,361 606,413 691,661 844,1106 L 1098,1106 625,-147 C 539,-377 396,-492 195,-492 143,-492 92,-486 43,-475 L 43,-289 C 78,-297 119,-301 164,-301 277,-301 357,-235 403,-104 L 444,0 0,1106 Z"/>
   <glyph unicode="t" horiz-adv-x="742" d="M 580,170 C 637,170 695,179 752,197 L 752,20 C 726,9 693,-1 652,-9 611,-16 568,-20 524,-20 301,-20 190,97 190,332 L 190,928 39,928 39,1032 201,1118 281,1352 426,1352 426,1106 741,1106 741,928 426,928 426,336 C 426,279 440,238 469,211 497,184 534,170 580,170 Z"/>
   <glyph unicode="s" horiz-adv-x="848" d="M 911,315 C 911,207 872,124 793,67 714,9 602,-20 455,-20 308,-20 189,2 100,47 L 100,250 C 230,190 351,160 463,160 608,160 680,204 680,291 680,319 672,342 656,361 640,380 614,399 577,419 540,439 489,462 424,487 297,536 211,586 166,635 121,684 98,748 98,827 98,922 136,995 213,1048 289,1100 393,1126 524,1126 654,1126 777,1100 893,1047 L 817,870 C 698,919 597,944 516,944 392,944 330,909 330,838 330,803 346,774 379,750 411,726 481,693 590,651 681,616 748,583 789,554 830,525 861,491 881,453 901,414 911,368 911,315 Z"/>
   <glyph unicode="r" horiz-adv-x="689" d="M 729,1126 C 776,1126 815,1123 846,1116 L 823,897 C 790,905 755,909 719,909 625,909 549,878 491,817 432,756 403,676 403,578 L 403,0 168,0 168,1106 352,1106 383,911 395,911 C 432,977 480,1029 539,1068 598,1107 661,1126 729,1126 Z"/>
   <glyph unicode="o" horiz-adv-x="1086" d="M 1149,555 C 1149,374 1103,233 1010,132 917,31 788,-20 623,-20 520,-20 428,3 349,50 270,97 209,164 166,251 123,338 102,440 102,555 102,734 148,874 240,975 332,1076 462,1126 629,1126 789,1126 916,1075 1009,972 1102,869 1149,730 1149,555 Z M 344,555 C 344,300 438,172 627,172 814,172 907,300 907,555 907,808 813,934 625,934 526,934 455,901 411,836 366,771 344,677 344,555 Z"/>
   <glyph unicode="n" horiz-adv-x="980" d="M 1141,0 L 905,0 905,680 C 905,765 888,829 854,871 819,913 765,934 690,934 591,934 518,905 472,846 426,787 403,689 403,551 L 403,0 168,0 168,1106 352,1106 385,961 397,961 C 430,1014 478,1054 539,1083 600,1112 668,1126 743,1126 1008,1126 1141,991 1141,721 L 1141,0 Z"/>
   <glyph unicode="m" horiz-adv-x="1641" d="M 1100,0 L 864,0 864,682 C 864,767 848,830 816,872 784,913 734,934 666,934 575,934 509,905 467,846 424,787 403,688 403,551 L 403,0 168,0 168,1106 352,1106 385,961 397,961 C 428,1014 472,1054 531,1083 589,1112 653,1126 723,1126 893,1126 1006,1068 1061,952 L 1077,952 C 1110,1007 1156,1049 1215,1080 1274,1111 1342,1126 1419,1126 1551,1126 1647,1093 1708,1026 1768,959 1798,858 1798,721 L 1798,0 1563,0 1563,682 C 1563,767 1547,830 1515,872 1482,913 1432,934 1364,934 1273,934 1206,906 1164,849 1121,792 1100,704 1100,586 L 1100,0 Z"/>
   <glyph unicode="i" horiz-adv-x="292" d="M 403,0 L 168,0 168,1106 403,1106 403,0 Z M 154,1399 C 154,1441 166,1473 189,1496 212,1519 244,1530 287,1530 328,1530 361,1519 384,1496 407,1473 418,1441 418,1399 418,1359 407,1328 384,1305 361,1282 328,1270 287,1270 244,1270 212,1282 189,1305 166,1328 154,1359 154,1399 Z"/>
   <glyph unicode="g" horiz-adv-x="1112" d="M 1102,1106 L 1102,977 913,942 C 930,919 945,890 956,856 967,822 973,786 973,748 973,634 934,544 855,479 776,414 668,381 530,381 495,381 463,384 434,389 383,358 358,321 358,279 358,254 370,235 394,222 417,209 461,203 524,203 L 717,203 C 839,203 932,177 995,125 1058,73 1090,-2 1090,-100 1090,-225 1038,-322 935,-390 832,-458 682,-492 487,-492 336,-492 221,-465 142,-412 63,-359 23,-283 23,-184 23,-116 45,-59 88,-13 131,34 191,66 268,84 237,97 211,119 191,149 170,178 160,209 160,242 160,283 172,318 195,347 218,376 253,404 299,432 242,457 195,497 160,553 124,608 106,673 106,748 106,868 144,961 220,1027 295,1093 403,1126 543,1126 574,1126 607,1124 642,1120 676,1115 702,1111 719,1106 L 1102,1106 Z M 233,-172 C 233,-223 256,-262 302,-289 347,-316 411,-330 494,-330 622,-330 717,-312 780,-275 843,-238 874,-190 874,-129 874,-81 857,-47 823,-27 788,-6 724,4 631,4 L 453,4 C 386,4 332,-12 293,-44 253,-75 233,-118 233,-172 Z M 334,748 C 334,679 352,625 388,588 423,551 474,532 541,532 677,532 745,605 745,750 745,822 728,878 695,917 661,956 610,975 541,975 473,975 422,956 387,917 352,878 334,822 334,748 Z"/>
   <glyph unicode="f" horiz-adv-x="822" d="M 723,928 L 453,928 453,0 217,0 217,928 35,928 35,1038 217,1110 217,1182 C 217,1313 248,1410 309,1473 370,1536 464,1567 590,1567 673,1567 754,1553 834,1526 L 772,1348 C 714,1367 659,1376 606,1376 553,1376 514,1360 490,1327 465,1294 453,1244 453,1178 L 453,1106 723,1106 723,928 Z"/>
   <glyph unicode="e" horiz-adv-x="1007" d="M 651,-20 C 479,-20 345,30 248,131 151,231 102,369 102,545 102,726 147,868 237,971 327,1074 451,1126 608,1126 754,1126 869,1082 954,993 1039,904 1081,782 1081,627 L 1081,500 344,500 C 347,393 376,310 431,253 486,195 563,166 662,166 727,166 788,172 845,185 901,197 961,217 1026,246 L 1026,55 C 969,28 911,8 852,-3 793,-14 726,-20 651,-20 Z M 608,948 C 533,948 474,924 429,877 384,830 357,761 348,670 L 850,670 C 849,761 827,831 784,878 741,925 683,948 608,948 Z"/>
   <glyph unicode="d" horiz-adv-x="1033" d="M 541,-20 C 403,-20 295,30 218,130 141,230 102,370 102,551 102,732 141,874 220,975 298,1076 406,1126 545,1126 690,1126 801,1072 877,965 L 889,965 C 878,1044 872,1107 872,1153 L 872,1556 1108,1556 1108,0 924,0 883,145 872,145 C 797,35 686,-20 541,-20 Z M 604,170 C 701,170 771,197 815,252 859,306 882,394 883,516 L 883,549 C 883,688 860,787 815,846 770,905 699,934 602,934 519,934 456,901 411,834 366,767 344,671 344,547 344,424 366,331 409,267 452,202 517,170 604,170 Z"/>
   <glyph unicode="c" horiz-adv-x="875" d="M 614,-20 C 447,-20 320,29 233,127 146,224 102,364 102,547 102,733 148,876 239,976 330,1076 461,1126 633,1126 750,1126 855,1104 948,1061 L 877,872 C 778,911 696,930 631,930 440,930 344,803 344,549 344,425 368,332 416,270 463,207 533,176 625,176 730,176 829,202 922,254 L 922,49 C 880,24 835,7 788,-4 740,-15 682,-20 614,-20 Z"/>
   <glyph unicode="a" horiz-adv-x="954" d="M 860,0 L 813,154 805,154 C 752,87 698,41 644,17 590,-8 521,-20 436,-20 327,-20 243,9 182,68 121,127 90,210 90,317 90,431 132,517 217,575 302,633 431,665 604,670 L 795,676 795,735 C 795,806 779,859 746,894 713,929 661,946 592,946 535,946 481,938 429,921 377,904 327,885 279,862 L 203,1030 C 263,1061 329,1085 400,1102 471,1118 539,1126 602,1126 743,1126 849,1095 921,1034 992,973 1028,876 1028,745 L 1028,0 860,0 Z M 510,160 C 595,160 664,184 716,232 767,279 793,346 793,432 L 793,528 651,522 C 540,518 460,500 410,467 359,434 334,383 334,315 334,266 349,228 378,201 407,174 451,160 510,160 Z"/>
   <glyph unicode="U" horiz-adv-x="1191" d="M 1339,1462 L 1339,516 C 1339,408 1316,314 1270,233 1223,152 1156,89 1069,46 981,2 876,-20 754,-20 573,-20 432,28 331,124 230,220 180,352 180,520 L 180,1462 420,1462 420,537 C 420,416 448,327 504,270 560,213 646,184 762,184 987,184 1100,302 1100,539 L 1100,1462 1339,1462 Z"/>
   <glyph unicode="S" horiz-adv-x="954" d="M 1036,397 C 1036,267 989,165 895,91 801,17 671,-20 506,-20 341,-20 205,6 100,57 L 100,283 C 167,252 238,227 313,209 388,191 457,182 522,182 617,182 687,200 732,236 777,272 799,320 799,381 799,436 778,482 737,520 696,558 610,603 481,655 348,709 254,771 199,840 144,909 117,993 117,1090 117,1212 160,1308 247,1378 334,1448 450,1483 596,1483 736,1483 875,1452 1014,1391 L 938,1196 C 808,1251 692,1278 590,1278 513,1278 454,1261 414,1228 374,1194 354,1149 354,1094 354,1056 362,1024 378,997 394,970 420,944 457,920 494,896 560,864 655,825 762,780 841,739 891,700 941,661 978,618 1001,569 1024,520 1036,463 1036,397 Z"/>
   <glyph unicode="R" horiz-adv-x="1112" d="M 432,782 L 598,782 C 709,782 790,803 840,844 890,885 915,947 915,1028 915,1111 888,1170 834,1206 780,1242 699,1260 590,1260 L 432,1260 432,782 Z M 432,584 L 432,0 193,0 193,1462 606,1462 C 795,1462 934,1427 1025,1356 1116,1285 1161,1179 1161,1036 1161,854 1066,724 877,647 L 1290,0 1018,0 668,584 432,584 Z"/>
   <glyph unicode="P" horiz-adv-x="980" d="M 1161,1020 C 1161,867 1111,750 1011,669 911,588 769,547 584,547 L 432,547 432,0 193,0 193,1462 614,1462 C 797,1462 934,1425 1025,1350 1116,1275 1161,1165 1161,1020 Z M 432,748 L 559,748 C 682,748 772,769 829,812 886,855 915,921 915,1012 915,1096 889,1159 838,1200 787,1241 707,1262 598,1262 L 432,1262 432,748 Z"/>
   <glyph unicode="N" horiz-adv-x="1245" d="M 1411,0 L 1118,0 399,1165 391,1165 396,1100 C 405,976 410,863 410,760 L 410,0 193,0 193,1462 483,1462 1200,303 1206,303 C 1205,318 1202,374 1198,471 1194,567 1192,642 1192,696 L 1192,1462 1411,1462 1411,0 Z"/>
   <glyph unicode="L" horiz-adv-x="874" d="M 193,0 L 193,1462 432,1462 432,205 1051,205 1051,0 193,0 Z"/>
   <glyph unicode="I" horiz-adv-x="266" d="M 193,0 L 193,1462 432,1462 432,0 193,0 Z"/>
   <glyph unicode="E" horiz-adv-x="848" d="M 1020,0 L 193,0 193,1462 1020,1462 1020,1260 432,1260 432,862 983,862 983,662 432,662 432,203 1020,203 1020,0 Z"/>
   <glyph unicode="D" horiz-adv-x="1192" d="M 1382,745 C 1382,504 1315,319 1181,192 1047,64 854,0 602,0 L 193,0 193,1462 645,1462 C 878,1462 1059,1399 1188,1274 1317,1149 1382,972 1382,745 Z M 1130,737 C 1130,1087 966,1262 639,1262 L 432,1262 432,201 602,201 C 954,201 1130,380 1130,737 Z"/>
   <glyph unicode="C" horiz-adv-x="1139" d="M 815,1278 C 678,1278 570,1229 491,1132 412,1035 373,900 373,729 373,550 411,414 487,322 562,230 672,184 815,184 877,184 937,190 995,203 1053,215 1113,231 1176,250 L 1176,45 C 1061,2 931,-20 786,-20 572,-20 408,45 293,175 178,304 121,490 121,731 121,883 149,1016 205,1130 260,1244 341,1331 446,1392 551,1453 675,1483 817,1483 966,1483 1104,1452 1231,1389 L 1145,1190 C 1096,1213 1044,1234 989,1252 934,1269 876,1278 815,1278 Z"/>
   <glyph unicode="B" horiz-adv-x="1060" d="M 193,1462 L 627,1462 C 828,1462 974,1433 1064,1374 1153,1315 1198,1223 1198,1096 1198,1011 1176,940 1132,883 1088,826 1025,791 942,776 L 942,766 C 1045,747 1120,709 1169,652 1217,595 1241,517 1241,420 1241,289 1195,186 1104,112 1012,37 884,0 721,0 L 193,0 193,1462 Z M 432,858 L 662,858 C 762,858 835,874 881,906 927,937 950,991 950,1067 950,1136 925,1185 876,1216 826,1247 747,1262 639,1262 L 432,1262 432,858 Z M 432,664 L 432,201 686,201 C 786,201 862,220 913,259 964,297 989,357 989,440 989,516 963,572 911,609 859,646 780,664 674,664 L 432,664 Z"/>
   <glyph unicode="A" horiz-adv-x="1350" d="M 1100,0 L 954,406 395,406 252,0 0,0 547,1468 807,1468 1354,0 1100,0 Z M 891,612 L 754,1010 C 744,1037 730,1079 713,1136 695,1193 683,1235 676,1262 658,1180 632,1090 597,993 L 465,612 891,612 Z"/>
   <glyph unicode="&gt;" horiz-adv-x="1007" d="M 96,418 L 829,721 96,1065 96,1260 1073,772 1073,651 96,221 96,418 Z"/>
   <glyph unicode="&lt;" horiz-adv-x="1007" d="M 1073,221 L 96,651 96,772 1073,1260 1073,1065 340,721 1073,418 1073,221 Z"/>
   <glyph unicode=":" horiz-adv-x="319" d="M 133,125 C 133,174 146,211 171,237 196,263 233,276 281,276 330,276 367,263 392,236 417,209 430,172 430,125 430,78 417,40 392,13 366,-15 329,-29 281,-29 233,-29 196,-15 171,12 146,39 133,77 133,125 Z M 133,979 C 133,1080 182,1130 281,1130 331,1130 368,1117 393,1090 418,1063 430,1026 430,979 430,932 417,894 392,867 366,839 329,825 281,825 233,825 196,839 171,866 146,893 133,931 133,979 Z"/>
   <glyph unicode="5" horiz-adv-x="980" d="M 586,913 C 733,913 850,874 936,796 1022,718 1065,612 1065,477 1065,321 1016,199 919,112 821,24 682,-20 502,-20 339,-20 210,6 117,59 L 117,272 C 171,241 233,218 303,201 373,184 438,176 498,176 604,176 685,200 740,247 795,294 823,364 823,455 823,630 712,717 489,717 458,717 419,714 373,708 327,701 287,694 252,686 L 147,748 203,1462 963,1462 963,1253 410,1253 377,891 C 400,895 429,900 463,905 496,910 537,913 586,913 Z"/>
   <glyph unicode="4" horiz-adv-x="1113" d="M 1133,319 L 936,319 936,0 707,0 707,319 39,319 39,500 707,1466 936,1466 936,514 1133,514 1133,319 Z M 707,514 L 707,881 C 707,1012 710,1119 717,1202 L 709,1202 C 690,1158 661,1105 621,1042 L 258,514 707,514 Z"/>
   <glyph unicode="3" horiz-adv-x="1007" d="M 1026,1126 C 1026,1033 999,956 945,895 891,833 815,791 717,770 L 717,762 C 834,747 922,711 981,653 1040,594 1069,517 1069,420 1069,279 1019,171 920,95 821,18 679,-20 496,-20 334,-20 197,6 86,59 L 86,268 C 148,237 214,214 283,197 352,180 419,172 483,172 596,172 681,193 737,235 793,277 821,342 821,430 821,508 790,565 728,602 666,639 569,657 436,657 L 309,657 309,848 438,848 C 671,848 788,929 788,1090 788,1153 768,1201 727,1235 686,1269 626,1286 547,1286 492,1286 438,1278 387,1263 336,1247 275,1216 205,1171 L 90,1335 C 224,1434 380,1483 557,1483 704,1483 819,1451 902,1388 985,1325 1026,1237 1026,1126 Z"/>
   <glyph unicode="2" horiz-adv-x="1007" d="M 1081,0 L 90,0 90,178 467,557 C 578,671 652,752 689,800 725,847 751,892 768,934 785,976 793,1021 793,1069 793,1135 773,1187 734,1225 694,1263 639,1282 569,1282 513,1282 459,1272 407,1251 354,1230 294,1193 225,1139 L 98,1294 C 179,1363 258,1411 335,1440 412,1469 493,1483 580,1483 716,1483 825,1448 907,1377 989,1306 1030,1210 1030,1090 1030,1024 1018,961 995,902 971,843 935,782 886,719 837,656 755,570 641,463 L 387,217 387,207 1081,207 1081,0 Z"/>
   <glyph unicode="1" horiz-adv-x="663" d="M 780,0 L 545,0 545,944 C 545,1057 548,1146 553,1212 538,1196 519,1178 497,1159 474,1140 399,1078 272,975 L 154,1124 584,1462 780,1462 780,0 Z"/>
   <glyph unicode="0" horiz-adv-x="1007" d="M 1081,731 C 1081,477 1040,288 959,165 877,42 752,-20 584,-20 421,-20 298,44 214,171 130,298 88,485 88,731 88,989 129,1179 211,1302 292,1424 417,1485 584,1485 747,1485 871,1421 955,1293 1039,1165 1081,978 1081,731 Z M 326,731 C 326,532 347,389 388,304 429,219 494,176 584,176 674,176 740,219 782,306 823,393 844,534 844,731 844,927 823,1069 782,1157 740,1244 674,1288 584,1288 494,1288 429,1245 388,1159 347,1073 326,930 326,731 Z"/>
   <glyph unicode="-" horiz-adv-x="557" d="M 72,449 L 72,649 586,649 586,449 72,449 Z"/>
   <glyph unicode=" " horiz-adv-x="529"/>
  </font>
 </defs>
 <defs class="TextShapeIndex">
  <g ooo:slide="id1" ooo:id-list="id3 id4"/>
 </defs>
 <defs class="EmbeddedBulletChars">
  <g id="bullet-char-template-57356" transform="scale(0.00048828125,-0.00048828125)">
   <path d="M 580,1141 L 1163,571 580,0 -4,571 580,1141 Z"/>
  </g>
  <g id="bullet-char-template-57354" transform="scale(0.00048828125,-0.00048828125)">
   <path d="M 8,1128 L 1137,1128 1137,0 8,0 8,1128 Z"/>
  </g>
  <g id="bullet-char-template-10146" transform="scale(0.00048828125,-0.00048828125)">
   <path d="M 174,0 L 602,739 174,1481 1456,739 174,0 Z M 1358,739 L 309,1346 659,739 1358,739 Z"/>
  </g>
  <g id="bullet-char-template-10132" transform="scale(0.00048828125,-0.00048828125)">
   <path d="M 2015,739 L 1276,0 717,0 1260,543 174,543 174,936 1260,936 717,1481 1274,1481 2015,739 Z"/>
  </g>
  <g id="bullet-char-template-10007" transform="scale(0.00048828125,-0.00048828125)">
   <path d="M 0,-2 C -7,14 -16,27 -25,37 L 356,567 C 262,823 215,952 215,954 215,979 228,992 255,992 264,992 276,990 289,987 310,991 331,999 354,1012 L 381,999 492,748 772,1049 836,1024 860,1049 C 881,1039 901,1025 922,1006 886,937 835,863 770,784 769,783 710,716 594,584 L 774,223 C 774,196 753,168 711,139 L 727,119 C 717,90 699,76 672,76 641,76 570,178 457,381 L 164,-76 C 142,-110 111,-127 72,-127 30,-127 9,-110 8,-76 1,-67 -2,-52 -2,-32 -2,-23 -1,-13 0,-2 Z"/>
  </g>
  <g id="bullet-char-template-10004" transform="scale(0.00048828125,-0.00048828125)">
   <path d="M 285,-33 C 182,-33 111,30 74,156 52,228 41,333 41,471 41,549 55,616 82,672 116,743 169,778 240,778 293,778 328,747 346,684 L 369,508 C 377,444 397,411 428,410 L 1163,1116 C 1174,1127 1196,1133 1229,1133 1271,1133 1292,1118 1292,1087 L 1292,965 C 1292,929 1282,901 1262,881 L 442,47 C 390,-6 338,-33 285,-33 Z"/>
  </g>
  <g id="bullet-char-template-9679" transform="scale(0.00048828125,-0.00048828125)">
   <path d="M 813,0 C 632,0 489,54 383,161 276,268 223,411 223,592 223,773 276,916 383,1023 489,1130 632,1184 813,1184 992,1184 1136,1130 1245,1023 1353,916 1407,772 1407,592 1407,412 1353,268 1245,161 1136,54 992,0 813,0 Z"/>
  </g>
  <g id="bullet-char-template-8226" transform="scale(0.00048828125,-0.00048828125)">
   <path d="M 346,457 C 273,457 209,483 155,535 101,586 74,649 74,723 74,796 101,859 155,911 209,963 273,989 346,989 419,989 480,963 531,910 582,859 608,796 608,723 608,648 583,586 532,535 482,483 420,457 346,457 Z"/>
  </g>
  <g id="bullet-char-template-8211" transform="scale(0.00048828125,-0.00048828125)">
   <path d="M -4,459 L 1135,459 1135,606 -4,606 -4,459 Z"/>
  </g>
  <g id="bullet-char-template-61548" transform="scale(0.00048828125,-0.00048828125)">
   <path d="M 173,740 C 173,903 231,1043 346,1159 462,1274 601,1332 765,1332 928,1332 1067,1274 1183,1159 1299,1043 1357,903 1357,740 1357,577 1299,437 1183,322 1067,206 928,148 765,148 601,148 462,206 346,322 231,437 173,577 173,740 Z"/>
  </g>
 </defs>
 <g>
  <g id="id2" class="Master_Slide">
   <g id="bg-id2" class="Background"/>
   <g id="bo-id2" class="BackgroundObjects"/>
  </g>
 </g>
 <g class="SlideGroup">
  <g>
   <g id="container-id1">
    <g id="id1" class="Slide" clip-path="url(#presentation_clip_path)">
     <g class="Page">
      <g class="Group">
       <g class="Graphic">
        <g id="id3">
         <rect class="BoundingBox" stroke="none" fill="none" x="1711" y="500" width="4080" height="3674"/>
         <defs>
          <clipPath id="clip_path_1" clipPathUnits="userSpaceOnUse">
           <path d="M 1711,500 L 5790,500 5790,4173 1711,4173 1711,500 Z"/>
          </clipPath>
         </defs>
         <g clip-path="url(#clip_path_1)">
          <path fill="rgb(0,0,0)" stroke="none" d="M 5267,2162 C 5255,2160 5241,2149 5237,2137 L 5084,1779 C 5078,1768 5079,1750 5086,1740 L 5378,1314 C 5385,1304 5384,1289 5375,1280 L 5010,915 C 5002,906 4986,905 4976,912 L 4543,1209 C 4533,1216 4515,1217 4504,1212 L 4157,1070 C 4145,1066 4134,1053 4131,1040 L 4035,522 C 4033,510 4021,500 4008,500 L 3493,500 C 3480,500 3468,510 3466,522 L 3370,1040 C 3367,1053 3356,1066 3344,1070 L 2997,1212 C 2986,1217 2968,1216 2958,1209 L 2525,912 C 2515,905 2499,906 2491,915 L 2126,1280 C 2117,1289 2116,1304 2123,1314 L 2415,1740 C 2422,1750 2423,1768 2417,1779 L 2264,2137 C 2260,2149 2246,2160 2234,2162 L 1733,2256 C 1721,2258 1711,2270 1711,2282 L 1711,2798 C 1711,2811 1721,2823 1733,2825 L 2222,2916 C 2234,2918 2247,2930 2251,2941 L 2403,3323 C 2409,3334 2407,3351 2400,3362 L 2123,3766 C 2116,3776 2117,3792 2126,3801 L 2491,4165 C 2499,4174 2515,4176 2525,4169 L 2922,3896 C 2933,3889 2950,3888 2961,3894 L 3136,3988 C 3147,3994 3160,3989 3164,3977 L 3526,3104 C 3530,3093 3526,3078 3515,3072 L 3471,3045 C 3463,3040 3452,3031 3444,3024 3285,2922 3180,2745 3180,2543 3180,2228 3436,1973 3751,1973 4065,1973 4321,2228 4321,2543 4321,2745 4216,2922 4057,3024 4049,3031 4038,3040 4030,3045 L 3986,3072 C 3975,3078 3971,3093 3975,3104 L 4337,3977 C 4341,3989 4354,3994 4365,3988 L 4540,3895 C 4551,3888 4568,3889 4579,3896 L 4976,4169 C 4986,4176 5002,4174 5010,4165 L 5375,3801 C 5384,3792 5385,3776 5378,3766 L 5101,3362 C 5094,3351 5092,3334 5098,3323 L 5250,2942 C 5254,2930 5267,2918 5279,2916 L 5768,2825 C 5780,2823 5790,2811 5790,2798 L 5790,2282 C 5790,2270 5780,2258 5768,2256 L 5267,2162 Z"/>
         </g>
        </g>
       </g>
       <g class="com.sun.star.drawing.TextShape">
        <g id="id4">
         <rect class="BoundingBox" stroke="none" fill="none" x="310" y="4202" width="6881" height="3432"/>
         <text class="TextShape"><tspan class="TextParagraph" font-family="Open Sans, sans-serif" font-size="353px" font-weight="700"><tspan class="TextPosition" x="1714" y="4704"><tspan fill="rgb(0,0,0)" stroke="none">Open Source Hardware</tspan></tspan><tspan class="TextPosition" x="567" y="5183"><tspan font-family="Open Sans Semibold, sans-serif" font-weight="400" fill="rgb(0,0,0)" stroke="none">according to DIN SPEC 3105-1:2020-04</tspan></tspan></tspan><tspan class="TextParagraph" font-family="Open Sans Semibold, sans-serif" font-size="353px" font-weight="400"><tspan class="TextPosition" x="1064" y="6042"><tspan fill="rgb(0,0,0)" stroke="none">&lt;Conformity Assessment Body&gt;</tspan></tspan></tspan><tspan class="TextParagraph" font-family="Open Sans Semibold, sans-serif" font-size="353px" font-weight="400"><tspan class="TextPosition" x="2004" y="6901"><tspan fill="rgb(0,0,0)" stroke="none">&lt;URL to attestation&gt;</tspan></tspan></tspan></text>
        </g>
       </g>
      </g>
     </g>
    </g>
   </g>
  </g>
 </g>
</svg>